<?xml version="1.0" encoding="utf-8"?>
<!-- Generator: Adobe Illustrator 24.0.1, SVG Export Plug-In . SVG Version: 6.00 Build 0)  -->
<svg version="1.1" id="Layer_1" xmlns="http://www.w3.org/2000/svg" xmlns:xlink="http://www.w3.org/1999/xlink" x="0px" y="0px"
	 viewBox="0 0 55.9 73.4" style="enable-background:new 0 0 55.9 73.4;" xml:space="preserve">
<style type="text/css">
	.st0{fill:#4086F4;}
	.st1{fill:#80AEF8;}
	.st2{fill:#FFF5F5;}
</style>
<g>
	<path id="Path_4308-2" class="st0" d="M55.9,19.4l-15.1-4.3L36.6,0H6.5C2.9,0,0,2.9,0,6.5c0,0,0,0,0,0V67c0,3.6,2.9,6.5,6.5,6.5
		c0,0,0,0,0,0h43c3.6,0,6.5-2.9,6.5-6.5c0,0,0,0,0,0V19.4z"/>
	<path id="Path_4310" class="st1" d="M55.9,19.4H40.9c-2.4,0-4.3-1.9-4.3-4.3V0c0.6,0,1.1,0.2,1.5,0.6l17.2,17.2
		C55.7,18.2,56,18.8,55.9,19.4z"/>
	<g id="Group_10836" transform="translate(12.91 30.268)">
		<path id="Path_4311" class="st2" d="M28,4.3H2.2C1,4.2,0,3.2,0.1,2.1C0.1,0.9,1,0,2.2,0H28c1.2,0.1,2.1,1.1,2.1,2.2
			C30,3.4,29.1,4.3,28,4.3L28,4.3z"/>
	</g>
	<g id="Group_10837" transform="translate(12.91 38.875)">
		<path id="Path_4312" class="st2" d="M28,4.3H2.2C1,4.2,0,3.2,0.1,2.1C0.1,0.9,1,0,2.2,0H28c1.2,0.1,2.1,1.1,2.1,2.2
			C30,3.4,29.1,4.3,28,4.3L28,4.3z"/>
	</g>
	<g id="Group_10838" transform="translate(12.91 47.482)">
		<path id="Path_4313" class="st2" d="M28,4.3H2.2C1,4.2,0,3.2,0.1,2.1C0.1,0.9,1,0,2.2,0H28c1.2,0.1,2.1,1.1,2.1,2.2
			C30,3.4,29.1,4.3,28,4.3L28,4.3z"/>
	</g>
	<g id="Group_10839" transform="translate(12.91 56.089)">
		<path id="Path_4314" class="st2" d="M19.4,4.3H2.2C1,4.2,0,3.2,0.1,2.1C0.1,0.9,1,0,2.2,0h17.2c1.2-0.1,2.2,0.9,2.2,2.1
			c0.1,1.2-0.9,2.2-2.1,2.2C19.5,4.3,19.4,4.3,19.4,4.3z"/>
	</g>
</g>
</svg>
