<?xml version="1.0" encoding="utf-8"?>
<!-- Generator: Adobe Illustrator 24.0.1, SVG Export Plug-In . SVG Version: 6.00 Build 0)  -->
<svg version="1.1" id="Layer_1" xmlns="http://www.w3.org/2000/svg" xmlns:xlink="http://www.w3.org/1999/xlink" x="0px" y="0px"
	 viewBox="0 0 66.1 52.9" style="enable-background:new 0 0 66.1 52.9;" xml:space="preserve">
<style type="text/css">
	.st0{fill:#4BB9FF;}
	.st1{fill:#2FD6F0;}
	.st2{fill:#92ECF6;}
	.st3{fill:#FFDD3E;}
</style>
<g>
	<path id="Path_4302-2" class="st0" d="M66.1,1.9v49c0,1.1-0.9,1.9-1.9,1.9H1.9C0.9,52.9,0,52,0,51v-49C0,0.9,0.9,0,1.9,0
		c0,0,0,0,0,0h62.2C65.2,0,66.1,0.9,66.1,1.9z"/>
	<path id="Path_4304" class="st1" d="M27.7,32.1v20.8H1.9C0.9,52.9,0,52,0,51c0,0,0,0,0,0V30.2h25.8C26.9,30.2,27.7,31.1,27.7,32.1
		L27.7,32.1z"/>
	<path id="Path_4305" class="st2" d="M66.1,50V51c0,1.1-0.9,1.9-1.9,1.9l0,0H1.9C0.9,52.9,0,52,0,51c0,0,0,0,0,0V50l25.2-19.8
		l6.7-5.3c0.7-0.6,1.7-0.6,2.4,0L66.1,50z"/>
	<path id="Path_4306" class="st1" d="M34.2,24.9c-0.3-0.3-0.8-0.4-1.2-0.4v28.4h31.1c1.1,0,1.9-0.9,1.9-1.9l0,0V50L34.2,24.9z"/>
	<path id="Path_4307" class="st3" d="M49.9,7.7c-4.6,0-8.4,3.8-8.4,8.4c0,4.6,3.8,8.4,8.4,8.4s8.4-3.8,8.4-8.4
		C58.3,11.5,54.6,7.7,49.9,7.7z"/>
</g>
</svg>
